Leeds Accidents Analysis
…
Accidents_2017 %>%
  group_by(Age) %>%
  summarise(count = n())

## # A tibble: 94 x 2
##      Age count
##  * <dbl> <int>
##  1     1    14
##  2     2     7
##  3     3    10
##  4     4    10
##  5     5     8
##  6     6    17
##  7     7    16
##  8     8    12
##  9     9    14
## 10    10    18
## # ... with 84 more rows
…
Males have a higher tendency to cause accidents.The ratio between males and females in accidents is slightly above 1.3.

# Variance (Number of Accidents Per Month)

# Accidents per day

Accidents_2017 %>%
  group_by(Accidents_Date) %>%
  summarise(sum = n())

## # A tibble: 360 x 2
##    Accidents_Date   sum
##  * <date>         <int>
##  1 2017-01-01         4
##  2 2017-01-02         7
##  3 2017-01-03         3
##  4 2017-01-04         7
##  5 2017-01-05         4
##  6 2017-01-06         5
##  7 2017-01-07         5
##  8 2017-01-09         5
##  9 2017-01-10         9
## 10 2017-01-11         7
## # ... with 350 more rows
…
Accidents_2017 %>%
  group_by(Gender, Age) %>%
  summarise(Count = n() )

## `summarise()` has grouped output by 'Gender'. You can override using the `.groups` argument.

## # A tibble: 182 x 3
## # Groups:   Gender [2]
##    Gender   Age Count
##    <chr>  <dbl> <int>
##  1 Female     1     8
##  2 Female     2     3
##  3 Female     3     6
##  4 Female     4     2
##  5 Female     5     6
##  6 Female     6     7
##  7 Female     7     8
##  8 Female     8     5
##  9 Female     9     4
## 10 Female    10     9
## # ... with 172 more rows
…
Accidents_2017 %>%
  group_by(Casualty_Class,Age) %>%
  summarise(Count = n() )

## `summarise()` has grouped output by 'Casualty_Class'. You can override using the `.groups` argument.

## # A tibble: 260 x 3
## # Groups:   Casualty_Class [3]
##    Casualty_Class    Age Count
##    <chr>           <dbl> <int>
##  1 Driver or rider     4     1
##  2 Driver or rider     6     2
##  3 Driver or rider     7     1
##  4 Driver or rider     8     3
##  5 Driver or rider     9     1
##  6 Driver or rider    10     3
##  7 Driver or rider    11     4
##  8 Driver or rider    12     5
##  9 Driver or rider    13     5
## 10 Driver or rider    14     3
## # ... with 250 more rows
…
