Road accidents data analysis
…
Accidents_2017 %>%
  group_by(Age) %>%
  summarise(count = n())

## # A tibble: 94 x 2
##      Age count
##  * <dbl> <int>
##  1     1    14
##  2     2     7
##  3     3    10
##  4     4    10
##  5     5     8
##  6     6    17
##  7     7    16
##  8     8    12
##  9     9    14
## 10    10    18
## # ... with 84 more rows
…
## # A tibble: 2 x 2
##   Gender count
## * <chr>  <int>
## 1 Female   953
## 2 Male    1250

# Variance (Number of Accidents Per Month)

Accidents_2017 %>%
  group_by(Accidents_Date) %>%
  summarise(sum = n())

## # A tibble: 360 x 2
##    Accidents_Date   sum
##  * <date>         <int>
##  1 2017-01-01         4
##  2 2017-01-02         7
##  3 2017-01-03         3
##  4 2017-01-04         7
##  5 2017-01-05         4
##  6 2017-01-06         5
##  7 2017-01-07         5
##  8 2017-01-09         5
##  9 2017-01-10         9
## 10 2017-01-11         7
## # ... with 350 more rows
…
